Volleyball Aces Beeswarm - Tanner Malinowski | Sports Data Analysis
…
How many teams even have four players who qualify?

efficientservers %>% 
  group_by(team) %>% 
  summarize(total=n()) %>% 
  arrange(desc(total))

## # A tibble: 255 × 2
##    team                     total
##    <chr>                    <int>
##  1 Delaware St. Hornets         5
##  2 Providence Friars            5
##  3 Alabama St. Lady Hornets     4
##  4 Binghamton Bearcats          4
##  5 Bowling Green Falcons        4
##  6 Coppin St. Eagles            4
##  7 Green Bay Phoenix            4
##  8 Hofstra Pride                4
##  9 Indiana Hoosiers             4
## 10 Iona Gaels                   4
## # … with 245 more rows

distinct(select(efficientservers, team))

## # A tibble: 255 × 1
##    team                        
##    <chr>                       
##  1 A&M-Corpus Christi Islanders
##  2 Abilene Christian Wildcats  
##  3 Air Force Falcons           
##  4 Alabama Crimson Tide        
##  5 Alabama A&M Bulldogs        
##  6 Alabama St. Lady Hornets    
##  7 Alcorn Lady Braves          
##  8 American Eagles             
##  9 App State Mountaineers      
## 10 Arizona Wildcats            
## # … with 245 more rows
…
