First Pass Interceptions - Tanner Malinowski | Sports Data Analysis
…
Kickoffs counted as a play, so half_play_number would equal 2.

pbpfirstplay <- pbp %>% 
  filter(half == 1, half_play_number == 2)

7,680 first plays from scrimmage in the first half from 2014-2022.

Count the number of play types for first plays from scrimmage to start the game. How many plays were pass plays - receptions, incompletions, sacks, interceptions - including those plays that resulted in a touchdown?

pbpfirstplay %>% 
  group_by(play_type) %>% 
  summarize(total = n())

## # A tibble: 22 × 2
##    play_type                            total
##    <chr>                                <int>
##  1 Field Goal Good                          6
##  2 Field Goal Missed                        1
##  3 Fumble Recovery (Opponent)              55
##  4 Fumble Recovery (Opponent) Touchdown     1
##  5 Fumble Recovery (Own)                   35
##  6 Interception Return                     45
##  7 Interception Return Touchdown            8
##  8 Kickoff                                113
##  9 Kickoff Return (Offense)                12
## 10 Kickoff Return Touchdown                 1
## # … with 12 more rows
…
2014: 6 // 2015: 8 // 2016: 6 // 2017: 6 // 2018: 4 // 2019: 4 // 2020: 2 // 2021: 1 // 2022: 9 // NA: 2

Which teams have done it more than once?

pbpfirstplayinterceptions %>% 
  group_by(pos_team) %>% 
  summarize(total=n()) %>% 
  arrange(desc(total))

## # A tibble: 40 × 2
##    pos_team       total
##    <chr>          <int>
##  1 Purdue             3
##  2 Ball State         2
##  3 BYU                2
##  4 Colorado State     2
##  5 Indiana            2
##  6 Tulsa              2
##  7 UAB                2
##  8 Alabama            1
##  9 Boston College     1
## 10 Bowling Green      1
## # … with 30 more rows
…
