What Defines a Kevin Willard Team? - Tanner Malinowski | Sports Data Analysis
…
Seton Hall and Maryland were pretty much the same in opponent three point percentage per game from 2012 through 2022, so I wanted to see how their respective perimenter defenses stacked up against the rest of the NCAA during that time.

opp3s <- basketball %>% 
  group_by(Team) %>% 
  summarize(opp_3pt_pct = mean(Opponent3PPCT)) %>% 
  arrange(opp_3pt_pct)

opp3s %>% 
  arrange(opp_3pt_pct)

## # A tibble: 359 × 2
##    Team                   opp_3pt_pct
##    <chr>                        <dbl>
##  1 North Carolina Central       0.308
##  2 San Diego State              0.312
##  3 Louisville                   0.313
##  4 Duke                         0.313
##  5 Memphis                      0.313
##  6 Virginia                     0.314
##  7 Gonzaga                      0.315
##  8 Michigan State               0.315
##  9 Rhode Island                 0.315
## 10 Utah Tech                    0.316
## # … with 349 more rows
…
## # A tibble: 1 × 1
##   opp_3pt_pct
##         <dbl>
## 1       0.410

Seeing where Seton Hall and Maryland stand nationally in terms of opponent field goal percentage.

opp_fg_pct <- basketball %>% 
  group_by(Team) %>% 
  summarize(opp_fg_pct = mean(OpponentFGPCT)) %>% 
  arrange(opp_fg_pct)

opp_fg_pct

## # A tibble: 359 × 2
##    Team               opp_fg_pct
##    <chr>                   <dbl>
##  1 UC Irvine               0.390
##  2 San Diego State         0.394
##  3 Michigan State          0.395
##  4 Virginia                0.396
##  5 Gonzaga                 0.397
##  6 Kentucky                0.400
##  7 Wichita State           0.400
##  8 Kansas                  0.402
##  9 Louisville              0.403
## 10 Southern Methodist      0.405
## # … with 349 more rows
…
## # A tibble: 1 × 1
##   steals
##    <dbl>
## 1   5.14

Looked like Seton Hall was a lot better than Maryland at stealing.

steals <- basketball %>% 
  group_by(Team) %>% 
  summarize(steals = mean(TeamSteals)) %>% 
  arrange(desc(steals))

steals

## # A tibble: 359 × 2
##    Team                  steals
##    <chr>                  <dbl>
##  1 Virginia Commonwealth   9.19
##  2 Tarleton State          8.75
##  3 Eastern Kentucky        8.56
##  4 Abilene Christian       8.42
##  5 Eastern Michigan        8.32
##  6 Stephen F. Austin       8.30
##  7 Syracuse                8.05
##  8 West Virginia           8.03
##  9 St. John's (NY)         7.92
## 10 Georgia State           7.91
## # … with 349 more rows
…
Seeing where Seton Hall ranks among all NCAA teams in close games played from 2011-12 through 2021-22.

team_close_games <- basketball_close_games %>% 
  group_by(Team) %>% 
  summarize(close_games=n()) %>% 
  arrange(desc(close_games))

team_close_games

## # A tibble: 359 × 2
##    Team                  close_games
##    <chr>                       <int>
##  1 Kent State                    103
##  2 Delaware                      100
##  3 Idaho                         100
##  4 Texas                          99
##  5 Niagara                        97
##  6 Akron                          95
##  7 College of Charleston          95
##  8 Northeastern                   95
##  9 Providence                     95
## 10 Siena                          95
## # … with 349 more rows
…
