First Play Interceptions - Tanner Malinowski | Sports Data Analysis
…
## 2014 - 6 // 2015 - 9 // 2016 - 7 // 2017 - 6 // 2018 - 4 // 2019 - 4 // 2020 - 2 // 2021 - 1 // 2022 - 9

intsbyszn %>% 
  group_by(pos_team) %>% 
  summarize(total=n()) %>% 
  arrange(desc(total))

## # A tibble: 40 × 2
##    pos_team       total
##    <chr>          <int>
##  1 Purdue             3
##  2 Ball State         2
##  3 BYU                2
##  4 Colorado State     2
##  5 Indiana            2
##  6 Tulsa              2
##  7 UAB                2
##  8 Alabama            1
##  9 Boston College     1
## 10 Bowling Green      1
## # … with 30 more rows
…
